{
  "carlos-figueiredo" : {
    "area" : "Lingua Portuguesa / Inglês",
    "email" : "carlos.figueiredo@ifms.edu.br",
    "key" : "carlos-figueiredo",
    "nome" : "Carlos",
    "nome-completo" : "Carlos Vinicius da Silva Figueiredo"
  },
  "carmem-rocha" : {
    "area" : "Sociologia",
    "carga" : 2,
    "email" : "carmem.rocha@ifms.edu.br",
    "key" : "carmem-rocha",
    "nome" : "Carmem",
    "nome-completo" : "Carmem Silvia Moretzsohn Rocha"
  },
  "cleide-abreu" : {
    "area" : "Lingua Portuguesa / Inglês",
    "carga" : 3.5999999999999996,
    "email" : "cleide.abreu@ifms.edu.br",
    "key" : "cleide-abreu",
    "nome" : "Cleide",
    "nome-completo" : "Cleide Abreu"
  },
  "elaine-godoy" : {
    "area" : "Matemática",
    "carga" : 2.4,
    "email" : "elaine.godoy@ifms.edu.br",
    "key" : "elaine-godoy",
    "nome" : "Elaine",
    "nome-completo" : "Elaine Alves de Godoy"
  },
  "emerson-silva" : {
    "area" : "Informática / Redes de Computadores",
    "carga" : 8.8,
    "email" : "emerson.silva@ifms.edu.br",
    "key" : "emerson-silva",
    "nome" : "Emerson",
    "nome-completo" : "Emerson Brandão da Silva"
  },
  "evandro-falleiros" : {
    "area" : "Informática / Desenvolvimento / Desenvolvimento Web",
    "carga" : 8,
    "email" : "evandro.falleiros@ifms.edu.br",
    "key" : "evandro-falleiros",
    "nome" : "Evandro",
    "nome-completo" : "Evandro Luís Souza Falleiros",
    "siape" : "1761391"
  },
  "jair-costa" : {
    "area" : "Educação Física",
    "carga" : 4,
    "email" : "jair.costa@ifms.edu.br",
    "key" : "jair-costa",
    "nome" : "Jair",
    "nome-completo" : "Jair Brito da Costa"
  },
  "jose-fonseca" : {
    "area" : "Administração",
    "email" : "jose.fonseca@ifms.edu.br",
    "key" : "jose-fonseca",
    "nome" : "Wilton",
    "nome-completo" : "José Wilton Fonseca da Silva"
  },
  "karina-vicelli" : {
    "area" : "Lingua Portuguesa",
    "carga" : 10,
    "email" : "karina.vicelli@ifms.edu.br",
    "key" : "karina-vicelli",
    "nome" : "Karina",
    "nome-completo" : "Karina Kristiane Vicelli"
  },
  "natalli-falleiros" : {
    "area" : "Informática / Desenvolvimento / Desenvolvimento Web",
    "carga" : 4,
    "diren" : true,
    "email" : "natalli.falleiros@ifms.edu.br",
    "key" : "natalli-falleiros",
    "nome" : "Nátalli",
    "nome-completo" : "Nátalli Macedo Rodrigues Falleiros",
    "siape" : "1761401"
  },
  "rafael-santos" : {
    "area" : "Física",
    "email" : "rafael.santos@ifms.edu.br",
    "key" : "rafael-santos",
    "nome" : "Rafael",
    "nome-completo" : "Rafael Mendonça dos Santos"
  },
  "sergio-sass" : {
    "area" : "Informática / Desenvolvimento / Desenvolvimento Web",
    "carga" : 8.399999999999999,
    "email" : "sergio.sass@ifms.edu.br",
    "key" : "sergio-sass",
    "nome" : "Sergio",
    "nome-completo" : "Sergio Ricardo Ribas Sass"
  },
  "sonivaldo-beltrame" : {
    "area" : "Matemática",
    "carga" : 10,
    "email" : "sonivaldo.beltrame@ifms.edu.br",
    "key" : "sonivaldo-beltrame",
    "nome" : "Sonivaldo",
    "nome-completo" : "Sonivaldo Ruzzene Beltrame",
    "siape" : "2152586"
  },
  "valdomiro-lima" : {
    "area" : "Geografia",
    "carga" : 4,
    "email" : "valdomiro.lima@ifms.edu.br",
    "key" : "valdomiro-lima",
    "nome" : "Valdomiro",
    "nome-completo" : "Valdomiro Antonio de Oliveira Lima"
  },
  "vanessa-kataoka" : {
    "area" : "Química",
    "carga" : 8,
    "email" : "vanessa.kataoka@ifms.edu.br",
    "key" : "vanessa-kataoka",
    "nome" : "Vanessa",
    "nome-completo" : "Vanessa Mayumi Fukuy Kataoka"
  }
}
